{
    "ImageIO.framework": 8,
    "CoreLocation.framework": 16,
    "AVFoundation.framework": 8,
    "libz.tbd": 16,
    "SystemConfiguration.framework": 8,
    "CoreTelephony.framework": 8,
    "libicucore.tbd": 8,
    "libstdc++.tbd": 8,
    "libstdc++.6.tbd": 8
}